user1,Funny Story,1343182026191
user2,Cool Deal,1343182133839
user4,Interesting Post 1,1343182154633
user5,Yet Another Blog 1,13431839394
user1,Funny Story 1,1343182026192
user2,Cool Deal 1,1343182133838
user4,Interesting Post 2,1343182154634
user5,Yet Another Blog 2,13431839394